%YAML 1.1
%TAG !u! tag:unity3d.com,2011:
--- !u!114 &11400000
MonoBehaviour:
  m_ObjectHideFlags: 0
  m_CorrespondingSourceObject: {fileID: 0}
  m_PrefabInstance: {fileID: 0}
  m_PrefabAsset: {fileID: 0}
  m_GameObject: {fileID: 0}
  m_Enabled: 1
  m_EditorHideFlags: 0
  m_Script: {fileID: 11500000, guid: 79d024150292e417fb485aa31a7a5ef5, type: 3}
  m_Name: RandomPowerUp
  m_EditorClassIdentifier: 
  addons:
  - {fileID: 11400000, guid: 53612c9b2c80d40959e997e48c7a8165, type: 2}
  - {fileID: 11400000, guid: c96d3e0eb722e4cc689a76014552c2a2, type: 2}
  - {fileID: 11400000, guid: b2dca6f70d8aa4ff89f764c04a19ed07, type: 2}
  - {fileID: 11400000, guid: 3b1e8a98872dc4029822b56f73b92d37, type: 2}
  - {fileID: 11400000, guid: a7494b5c75b3b40fe970ee98f0ae3468, type: 2}
  - {fileID: 11400000, guid: c0c0583b8bea34b1dbd87b8648ad959c, type: 2}
  - {fileID: 11400000, guid: 534e807dbd9e39a4d9dd898d73c5f6b9, type: 2}
