%YAML 1.1
%TAG !u! tag:unity3d.com,2011:
--- !u!95 &2001167743751179373
Animator:
  serializedVersion: 3
  m_ObjectHideFlags: 0
  m_CorrespondingSourceObject: {fileID: 0}
  m_PrefabInstance: {fileID: 0}
  m_PrefabAsset: {fileID: 0}
  m_GameObject: {fileID: 3855561210567815083}
  m_Enabled: 1
  m_Avatar: {fileID: 0}
  m_Controller: {fileID: 9100000, guid: 18727d5aeab455d49a33fffa18542d6a, type: 2}
  m_CullingMode: 0
  m_UpdateMode: 0
  m_ApplyRootMotion: 0
  m_LinearVelocityBlending: 0
  m_WarningMessage: 
  m_HasTransformHierarchy: 1
  m_AllowConstantClipSamplingOptimization: 1
  m_KeepAnimatorControllerStateOnDisable: 0
--- !u!1001 &2394336052340960583
PrefabInstance:
  m_ObjectHideFlags: 0
  serializedVersion: 2
  m_Modification:
    m_TransformParent: {fileID: 0}
    m_Modifications:
    - target: {fileID: 27282740849174130, guid: d94487b79c40340b29747d105a2bbe69, type: 3}
      propertyPath: m_Name
      value: ForgedAddonDoor
      objectReference: {fileID: 0}
    - target: {fileID: 27282740849174132, guid: d94487b79c40340b29747d105a2bbe69, type: 3}
      propertyPath: m_Size.x
      value: 3.8092332
      objectReference: {fileID: 0}
    - target: {fileID: 27282740849174132, guid: d94487b79c40340b29747d105a2bbe69, type: 3}
      propertyPath: m_Size.y
      value: 5.358443
      objectReference: {fileID: 0}
    - target: {fileID: 27282740849174132, guid: d94487b79c40340b29747d105a2bbe69, type: 3}
      propertyPath: m_Size.z
      value: 1.975235
      objectReference: {fileID: 0}
    - target: {fileID: 27282740849174132, guid: d94487b79c40340b29747d105a2bbe69, type: 3}
      propertyPath: m_Center.x
      value: -1.8626616
      objectReference: {fileID: 0}
    - target: {fileID: 27282740849174132, guid: d94487b79c40340b29747d105a2bbe69, type: 3}
      propertyPath: m_Center.y
      value: 1.6792214
      objectReference: {fileID: 0}
    - target: {fileID: 27282740849174132, guid: d94487b79c40340b29747d105a2bbe69, type: 3}
      propertyPath: m_Center.z
      value: -0.073848724
      objectReference: {fileID: 0}
    - target: {fileID: 27282740849174135, guid: d94487b79c40340b29747d105a2bbe69, type: 3}
      propertyPath: m_RootOrder
      value: 0
      objectReference: {fileID: 0}
    - target: {fileID: 27282740849174135, guid: d94487b79c40340b29747d105a2bbe69, type: 3}
      propertyPath: m_LocalPosition.x
      value: 0
      objectReference: {fileID: 0}
    - target: {fileID: 27282740849174135, guid: d94487b79c40340b29747d105a2bbe69, type: 3}
      propertyPath: m_LocalPosition.y
      value: 0
      objectReference: {fileID: 0}
    - target: {fileID: 27282740849174135, guid: d94487b79c40340b29747d105a2bbe69, type: 3}
      propertyPath: m_LocalPosition.z
      value: 0
      objectReference: {fileID: 0}
    - target: {fileID: 27282740849174135, guid: d94487b79c40340b29747d105a2bbe69, type: 3}
      propertyPath: m_LocalRotation.w
      value: 1
      objectReference: {fileID: 0}
    - target: {fileID: 27282740849174135, guid: d94487b79c40340b29747d105a2bbe69, type: 3}
      propertyPath: m_LocalRotation.x
      value: 0
      objectReference: {fileID: 0}
    - target: {fileID: 27282740849174135, guid: d94487b79c40340b29747d105a2bbe69, type: 3}
      propertyPath: m_LocalRotation.y
      value: 0
      objectReference: {fileID: 0}
    - target: {fileID: 27282740849174135, guid: d94487b79c40340b29747d105a2bbe69, type: 3}
      propertyPath: m_LocalRotation.z
      value: 0
      objectReference: {fileID: 0}
    - target: {fileID: 27282740849174135, guid: d94487b79c40340b29747d105a2bbe69, type: 3}
      propertyPath: m_LocalEulerAnglesHint.x
      value: 0
      objectReference: {fileID: 0}
    - target: {fileID: 27282740849174135, guid: d94487b79c40340b29747d105a2bbe69, type: 3}
      propertyPath: m_LocalEulerAnglesHint.y
      value: 0
      objectReference: {fileID: 0}
    - target: {fileID: 27282740849174135, guid: d94487b79c40340b29747d105a2bbe69, type: 3}
      propertyPath: m_LocalEulerAnglesHint.z
      value: 0
      objectReference: {fileID: 0}
    - target: {fileID: 8383854099425823858, guid: d94487b79c40340b29747d105a2bbe69, type: 3}
      propertyPath: stringReference.useValue
      value: 0
      objectReference: {fileID: 0}
    - target: {fileID: 8383854099425823858, guid: d94487b79c40340b29747d105a2bbe69, type: 3}
      propertyPath: stringReference.variable
      value: 
      objectReference: {fileID: 11400000, guid: e816ee32284756a45bc261d7b2d74525, type: 2}
    - target: {fileID: 8383854099425823858, guid: d94487b79c40340b29747d105a2bbe69, type: 3}
      propertyPath: onEnter.m_PersistentCalls.m_Calls.Array.size
      value: 1
      objectReference: {fileID: 0}
    - target: {fileID: 8383854099425823858, guid: d94487b79c40340b29747d105a2bbe69, type: 3}
      propertyPath: onEnter.m_PersistentCalls.m_Calls.Array.data[0].m_Mode
      value: 5
      objectReference: {fileID: 0}
    - target: {fileID: 8383854099425823858, guid: d94487b79c40340b29747d105a2bbe69, type: 3}
      propertyPath: onEnter.m_PersistentCalls.m_Calls.Array.data[0].m_Target
      value: 
      objectReference: {fileID: 2001167743751179373}
    - target: {fileID: 8383854099425823858, guid: d94487b79c40340b29747d105a2bbe69, type: 3}
      propertyPath: onEnterGO.m_PersistentCalls.m_Calls.Array.data[0].m_Target
      value: 
      objectReference: {fileID: 11400000, guid: a51c6251d8e6a4273910f1a0a4e34154, type: 2}
    - target: {fileID: 8383854099425823858, guid: d94487b79c40340b29747d105a2bbe69, type: 3}
      propertyPath: onEnter.m_PersistentCalls.m_Calls.Array.data[0].m_CallState
      value: 2
      objectReference: {fileID: 0}
    - target: {fileID: 8383854099425823858, guid: d94487b79c40340b29747d105a2bbe69, type: 3}
      propertyPath: onEnter.m_PersistentCalls.m_Calls.Array.data[0].m_MethodName
      value: SetTrigger
      objectReference: {fileID: 0}
    - target: {fileID: 8383854099425823858, guid: d94487b79c40340b29747d105a2bbe69, type: 3}
      propertyPath: onEnterGO.m_PersistentCalls.m_Calls.Array.data[0].m_MethodName
      value: AddAddon
      objectReference: {fileID: 0}
    - target: {fileID: 8383854099425823858, guid: d94487b79c40340b29747d105a2bbe69, type: 3}
      propertyPath: onEnter.m_PersistentCalls.m_Calls.Array.data[0].m_TargetAssemblyTypeName
      value: UnityEngine.Animator, UnityEngine
      objectReference: {fileID: 0}
    - target: {fileID: 8383854099425823858, guid: d94487b79c40340b29747d105a2bbe69, type: 3}
      propertyPath: onEnter.m_PersistentCalls.m_Calls.Array.data[0].m_Arguments.m_StringArgument
      value: active
      objectReference: {fileID: 0}
    - target: {fileID: 8383854099425823858, guid: d94487b79c40340b29747d105a2bbe69, type: 3}
      propertyPath: onEnter.m_PersistentCalls.m_Calls.Array.data[0].m_Arguments.m_ObjectArgumentAssemblyTypeName
      value: UnityEngine.Object, UnityEngine
      objectReference: {fileID: 0}
    m_RemovedComponents: []
  m_SourcePrefab: {fileID: 100100000, guid: d94487b79c40340b29747d105a2bbe69, type: 3}
--- !u!4 &2403389989415387605 stripped
Transform:
  m_CorrespondingSourceObject: {fileID: 27282740892413074, guid: d94487b79c40340b29747d105a2bbe69, type: 3}
  m_PrefabInstance: {fileID: 2394336052340960583}
  m_PrefabAsset: {fileID: 0}
--- !u!1001 &7722305845165318026
PrefabInstance:
  m_ObjectHideFlags: 0
  serializedVersion: 2
  m_Modification:
    m_TransformParent: {fileID: 2403389989415387605}
    m_Modifications:
    - target: {fileID: 3851704599521849020, guid: cc83573e3222b8b41bfb264b84b9d34d, type: 3}
      propertyPath: m_LocalPosition.y
      value: 12.865339
      objectReference: {fileID: 0}
    - target: {fileID: 3851704599521849020, guid: cc83573e3222b8b41bfb264b84b9d34d, type: 3}
      propertyPath: m_LocalPosition.z
      value: -0.0000001525879
      objectReference: {fileID: 0}
    - target: {fileID: 6188298361932311195, guid: cc83573e3222b8b41bfb264b84b9d34d, type: 3}
      propertyPath: m_RootOrder
      value: 0
      objectReference: {fileID: 0}
    - target: {fileID: 6188298361932311195, guid: cc83573e3222b8b41bfb264b84b9d34d, type: 3}
      propertyPath: m_LocalPosition.x
      value: 0
      objectReference: {fileID: 0}
    - target: {fileID: 6188298361932311195, guid: cc83573e3222b8b41bfb264b84b9d34d, type: 3}
      propertyPath: m_LocalPosition.y
      value: 0
      objectReference: {fileID: 0}
    - target: {fileID: 6188298361932311195, guid: cc83573e3222b8b41bfb264b84b9d34d, type: 3}
      propertyPath: m_LocalPosition.z
      value: 0
      objectReference: {fileID: 0}
    - target: {fileID: 6188298361932311195, guid: cc83573e3222b8b41bfb264b84b9d34d, type: 3}
      propertyPath: m_LocalRotation.w
      value: 1
      objectReference: {fileID: 0}
    - target: {fileID: 6188298361932311195, guid: cc83573e3222b8b41bfb264b84b9d34d, type: 3}
      propertyPath: m_LocalRotation.x
      value: -0
      objectReference: {fileID: 0}
    - target: {fileID: 6188298361932311195, guid: cc83573e3222b8b41bfb264b84b9d34d, type: 3}
      propertyPath: m_LocalRotation.y
      value: -0
      objectReference: {fileID: 0}
    - target: {fileID: 6188298361932311195, guid: cc83573e3222b8b41bfb264b84b9d34d, type: 3}
      propertyPath: m_LocalRotation.z
      value: -0
      objectReference: {fileID: 0}
    - target: {fileID: 6188298361932311195, guid: cc83573e3222b8b41bfb264b84b9d34d, type: 3}
      propertyPath: m_LocalEulerAnglesHint.x
      value: 0
      objectReference: {fileID: 0}
    - target: {fileID: 6188298361932311195, guid: cc83573e3222b8b41bfb264b84b9d34d, type: 3}
      propertyPath: m_LocalEulerAnglesHint.y
      value: 0
      objectReference: {fileID: 0}
    - target: {fileID: 6188298361932311195, guid: cc83573e3222b8b41bfb264b84b9d34d, type: 3}
      propertyPath: m_LocalEulerAnglesHint.z
      value: 0
      objectReference: {fileID: 0}
    - target: {fileID: 6821423182133276705, guid: cc83573e3222b8b41bfb264b84b9d34d, type: 3}
      propertyPath: m_Name
      value: PressMachine
      objectReference: {fileID: 0}
    m_RemovedComponents: []
  m_SourcePrefab: {fileID: 100100000, guid: cc83573e3222b8b41bfb264b84b9d34d, type: 3}
--- !u!1 &3855561210567815083 stripped
GameObject:
  m_CorrespondingSourceObject: {fileID: 6821423182133276705, guid: cc83573e3222b8b41bfb264b84b9d34d, type: 3}
  m_PrefabInstance: {fileID: 7722305845165318026}
  m_PrefabAsset: {fileID: 0}
