%YAML 1.1
%TAG !u! tag:unity3d.com,2011:
--- !u!114 &11400000
MonoBehaviour:
  m_ObjectHideFlags: 0
  m_CorrespondingSourceObject: {fileID: 0}
  m_PrefabInstance: {fileID: 0}
  m_PrefabAsset: {fileID: 0}
  m_GameObject: {fileID: 0}
  m_Enabled: 1
  m_EditorHideFlags: 0
  m_Script: {fileID: 11500000, guid: 9f15153a64c4ec543a6dcf9f445bc481, type: 3}
  m_Name: Level05Data
  m_EditorClassIdentifier: 
  SpawnPositions: []
  MapName: Level05
  MapIndex: 5
  HalfLaneSize: 5
