%YAML 1.1
%TAG !u! tag:unity3d.com,2011:
--- !u!114 &11400000
MonoBehaviour:
  m_ObjectHideFlags: 0
  m_CorrespondingSourceObject: {fileID: 0}
  m_PrefabInstance: {fileID: 0}
  m_PrefabAsset: {fileID: 0}
  m_GameObject: {fileID: 0}
  m_Enabled: 1
  m_EditorHideFlags: 0
  m_Script: {fileID: 11500000, guid: b2e51600ed8f9624d82a323acaf5a710, type: 3}
  m_Name: New Scriptable Destroyer
  m_EditorClassIdentifier: 
  delayTime: 10
  onDestroyed:
    m_PersistentCalls:
      m_Calls: []
