%YAML 1.1
%TAG !u! tag:unity3d.com,2011:
--- !u!114 &11400000
MonoBehaviour:
  m_ObjectHideFlags: 0
  m_CorrespondingSourceObject: {fileID: 0}
  m_PrefabInstance: {fileID: 0}
  m_PrefabAsset: {fileID: 0}
  m_GameObject: {fileID: 0}
  m_Enabled: 1
  m_EditorHideFlags: 0
  m_Script: {fileID: 11500000, guid: 4e11639e8b7c343d59dbcd64db00b447, type: 3}
  m_Name: PlayerHealthLessThanZero
  m_EditorClassIdentifier: 
  isConditionProvided: 0
  value: {fileID: 11400000, guid: 8385fa710ac3c0b478944c26b2bf7797, type: 2}
  comparaValue:
    useValue: 1
    variable: {fileID: 0}
    constantValue: 0
