%YAML 1.1
%TAG !u! tag:unity3d.com,2011:
--- !u!1001 &144669581448959357
PrefabInstance:
  m_ObjectHideFlags: 0
  serializedVersion: 2
  m_Modification:
    m_TransformParent: {fileID: 7601531063505677472}
    m_Modifications:
    - target: {fileID: -8679921383154817045, guid: 5e6918b45b4ea444999fa702d365dfc4, type: 3}
      propertyPath: m_RootOrder
      value: 2
      objectReference: {fileID: 0}
    - target: {fileID: -8679921383154817045, guid: 5e6918b45b4ea444999fa702d365dfc4, type: 3}
      propertyPath: m_LocalScale.x
      value: 0.050057285
      objectReference: {fileID: 0}
    - target: {fileID: -8679921383154817045, guid: 5e6918b45b4ea444999fa702d365dfc4, type: 3}
      propertyPath: m_LocalScale.y
      value: 0.050057285
      objectReference: {fileID: 0}
    - target: {fileID: -8679921383154817045, guid: 5e6918b45b4ea444999fa702d365dfc4, type: 3}
      propertyPath: m_LocalScale.z
      value: 0.050057285
      objectReference: {fileID: 0}
    - target: {fileID: -8679921383154817045, guid: 5e6918b45b4ea444999fa702d365dfc4, type: 3}
      propertyPath: m_LocalPosition.x
      value: 0.3313
      objectReference: {fileID: 0}
    - target: {fileID: -8679921383154817045, guid: 5e6918b45b4ea444999fa702d365dfc4, type: 3}
      propertyPath: m_LocalPosition.y
      value: 0.01
      objectReference: {fileID: 0}
    - target: {fileID: -8679921383154817045, guid: 5e6918b45b4ea444999fa702d365dfc4, type: 3}
      propertyPath: m_LocalPosition.z
      value: 0.4998
      objectReference: {fileID: 0}
    - target: {fileID: -8679921383154817045, guid: 5e6918b45b4ea444999fa702d365dfc4, type: 3}
      propertyPath: m_LocalRotation.w
      value: 0.98520225
      objectReference: {fileID: 0}
    - target: {fileID: -8679921383154817045, guid: 5e6918b45b4ea444999fa702d365dfc4, type: 3}
      propertyPath: m_LocalRotation.x
      value: -0.17139599
      objectReference: {fileID: 0}
    - target: {fileID: -8679921383154817045, guid: 5e6918b45b4ea444999fa702d365dfc4, type: 3}
      propertyPath: m_LocalRotation.y
      value: 0
      objectReference: {fileID: 0}
    - target: {fileID: -8679921383154817045, guid: 5e6918b45b4ea444999fa702d365dfc4, type: 3}
      propertyPath: m_LocalRotation.z
      value: 0
      objectReference: {fileID: 0}
    - target: {fileID: -8679921383154817045, guid: 5e6918b45b4ea444999fa702d365dfc4, type: 3}
      propertyPath: m_LocalEulerAnglesHint.x
      value: -19.738
      objectReference: {fileID: 0}
    - target: {fileID: -8679921383154817045, guid: 5e6918b45b4ea444999fa702d365dfc4, type: 3}
      propertyPath: m_LocalEulerAnglesHint.y
      value: 0
      objectReference: {fileID: 0}
    - target: {fileID: -8679921383154817045, guid: 5e6918b45b4ea444999fa702d365dfc4, type: 3}
      propertyPath: m_LocalEulerAnglesHint.z
      value: 0
      objectReference: {fileID: 0}
    - target: {fileID: 919132149155446097, guid: 5e6918b45b4ea444999fa702d365dfc4, type: 3}
      propertyPath: m_Name
      value: NewDiamond
      objectReference: {fileID: 0}
    m_RemovedComponents: []
  m_SourcePrefab: {fileID: 100100000, guid: 5e6918b45b4ea444999fa702d365dfc4, type: 3}
--- !u!1001 &1972556969757559625
PrefabInstance:
  m_ObjectHideFlags: 0
  serializedVersion: 2
  m_Modification:
    m_TransformParent: {fileID: 0}
    m_Modifications:
    - target: {fileID: 774378753643758348, guid: 96fa39241ff3b4ac6b939a3a95b66b59, type: 3}
      propertyPath: m_IsActive
      value: 0
      objectReference: {fileID: 0}
    - target: {fileID: 1188134522947265224, guid: 96fa39241ff3b4ac6b939a3a95b66b59, type: 3}
      propertyPath: ReplacableObject
      value: 
      objectReference: {fileID: 11400000, guid: f4ab0b432fee640a187973d866169d5c, type: 2}
    - target: {fileID: 4930062642420361351, guid: 96fa39241ff3b4ac6b939a3a95b66b59, type: 3}
      propertyPath: m_RootOrder
      value: 0
      objectReference: {fileID: 0}
    - target: {fileID: 4930062642420361351, guid: 96fa39241ff3b4ac6b939a3a95b66b59, type: 3}
      propertyPath: m_LocalScale.x
      value: 3
      objectReference: {fileID: 0}
    - target: {fileID: 4930062642420361351, guid: 96fa39241ff3b4ac6b939a3a95b66b59, type: 3}
      propertyPath: m_LocalScale.y
      value: 3
      objectReference: {fileID: 0}
    - target: {fileID: 4930062642420361351, guid: 96fa39241ff3b4ac6b939a3a95b66b59, type: 3}
      propertyPath: m_LocalScale.z
      value: 3
      objectReference: {fileID: 0}
    - target: {fileID: 4930062642420361351, guid: 96fa39241ff3b4ac6b939a3a95b66b59, type: 3}
      propertyPath: m_LocalPosition.x
      value: 0
      objectReference: {fileID: 0}
    - target: {fileID: 4930062642420361351, guid: 96fa39241ff3b4ac6b939a3a95b66b59, type: 3}
      propertyPath: m_LocalPosition.y
      value: 0
      objectReference: {fileID: 0}
    - target: {fileID: 4930062642420361351, guid: 96fa39241ff3b4ac6b939a3a95b66b59, type: 3}
      propertyPath: m_LocalPosition.z
      value: 0
      objectReference: {fileID: 0}
    - target: {fileID: 4930062642420361351, guid: 96fa39241ff3b4ac6b939a3a95b66b59, type: 3}
      propertyPath: m_LocalRotation.w
      value: 1
      objectReference: {fileID: 0}
    - target: {fileID: 4930062642420361351, guid: 96fa39241ff3b4ac6b939a3a95b66b59, type: 3}
      propertyPath: m_LocalRotation.x
      value: 0
      objectReference: {fileID: 0}
    - target: {fileID: 4930062642420361351, guid: 96fa39241ff3b4ac6b939a3a95b66b59, type: 3}
      propertyPath: m_LocalRotation.y
      value: 0
      objectReference: {fileID: 0}
    - target: {fileID: 4930062642420361351, guid: 96fa39241ff3b4ac6b939a3a95b66b59, type: 3}
      propertyPath: m_LocalRotation.z
      value: 0
      objectReference: {fileID: 0}
    - target: {fileID: 4930062642420361351, guid: 96fa39241ff3b4ac6b939a3a95b66b59, type: 3}
      propertyPath: m_LocalEulerAnglesHint.x
      value: 0
      objectReference: {fileID: 0}
    - target: {fileID: 4930062642420361351, guid: 96fa39241ff3b4ac6b939a3a95b66b59, type: 3}
      propertyPath: m_LocalEulerAnglesHint.y
      value: 0
      objectReference: {fileID: 0}
    - target: {fileID: 4930062642420361351, guid: 96fa39241ff3b4ac6b939a3a95b66b59, type: 3}
      propertyPath: m_LocalEulerAnglesHint.z
      value: 0
      objectReference: {fileID: 0}
    - target: {fileID: 5030546212714977446, guid: 96fa39241ff3b4ac6b939a3a95b66b59, type: 3}
      propertyPath: basePrice
      value: 15
      objectReference: {fileID: 0}
    - target: {fileID: 5030546212714977446, guid: 96fa39241ff3b4ac6b939a3a95b66b59, type: 3}
      propertyPath: addonPrices
      value: 
      objectReference: {fileID: 11400000, guid: 9ee241949af90d444abde8ed5de33c51, type: 2}
    - target: {fileID: 6481372076361510897, guid: 96fa39241ff3b4ac6b939a3a95b66b59, type: 3}
      propertyPath: m_LocalRotation.w
      value: 0.59636784
      objectReference: {fileID: 0}
    - target: {fileID: 6481372076361510897, guid: 96fa39241ff3b4ac6b939a3a95b66b59, type: 3}
      propertyPath: m_LocalRotation.x
      value: 0.37992823
      objectReference: {fileID: 0}
    - target: {fileID: 6481372076361510897, guid: 96fa39241ff3b4ac6b939a3a95b66b59, type: 3}
      propertyPath: m_LocalRotation.y
      value: -0.59636784
      objectReference: {fileID: 0}
    - target: {fileID: 6481372076361510897, guid: 96fa39241ff3b4ac6b939a3a95b66b59, type: 3}
      propertyPath: m_LocalRotation.z
      value: -0.37992823
      objectReference: {fileID: 0}
    - target: {fileID: 6761462534888405358, guid: 96fa39241ff3b4ac6b939a3a95b66b59, type: 3}
      propertyPath: addonPrices
      value: 
      objectReference: {fileID: 11400000, guid: 9ee241949af90d444abde8ed5de33c51, type: 2}
    - target: {fileID: 7326879605730770368, guid: 96fa39241ff3b4ac6b939a3a95b66b59, type: 3}
      propertyPath: m_LocalPosition.y
      value: 0.045
      objectReference: {fileID: 0}
    - target: {fileID: 7326879605730770368, guid: 96fa39241ff3b4ac6b939a3a95b66b59, type: 3}
      propertyPath: m_LocalPosition.z
      value: 0.508
      objectReference: {fileID: 0}
    - target: {fileID: 8767470730842991135, guid: 96fa39241ff3b4ac6b939a3a95b66b59, type: 3}
      propertyPath: m_Name
      value: SwordTier3
      objectReference: {fileID: 0}
    - target: {fileID: 8876749143482074530, guid: 96fa39241ff3b4ac6b939a3a95b66b59, type: 3}
      propertyPath: m_IsActive
      value: 0
      objectReference: {fileID: 0}
    m_RemovedComponents:
    - {fileID: 5446590087301624843, guid: 96fa39241ff3b4ac6b939a3a95b66b59, type: 3}
  m_SourcePrefab: {fileID: 100100000, guid: 96fa39241ff3b4ac6b939a3a95b66b59, type: 3}
--- !u!4 &4804667405843768504 stripped
Transform:
  m_CorrespondingSourceObject: {fileID: 6481372076361510897, guid: 96fa39241ff3b4ac6b939a3a95b66b59, type: 3}
  m_PrefabInstance: {fileID: 1972556969757559625}
  m_PrefabAsset: {fileID: 0}
--- !u!4 &7601531063505677472 stripped
Transform:
  m_CorrespondingSourceObject: {fileID: 8224133836616017897, guid: 96fa39241ff3b4ac6b939a3a95b66b59, type: 3}
  m_PrefabInstance: {fileID: 1972556969757559625}
  m_PrefabAsset: {fileID: 0}
--- !u!1001 &5922812564439729880
PrefabInstance:
  m_ObjectHideFlags: 0
  serializedVersion: 2
  m_Modification:
    m_TransformParent: {fileID: 7601531063505677472}
    m_Modifications:
    - target: {fileID: -8679921383154817045, guid: d2e9bb9f0d5ccfb4cb66cd4fde061f49, type: 3}
      propertyPath: m_RootOrder
      value: 1
      objectReference: {fileID: 0}
    - target: {fileID: -8679921383154817045, guid: d2e9bb9f0d5ccfb4cb66cd4fde061f49, type: 3}
      propertyPath: m_LocalScale.x
      value: 0.17061014
      objectReference: {fileID: 0}
    - target: {fileID: -8679921383154817045, guid: d2e9bb9f0d5ccfb4cb66cd4fde061f49, type: 3}
      propertyPath: m_LocalScale.y
      value: 0.17061014
      objectReference: {fileID: 0}
    - target: {fileID: -8679921383154817045, guid: d2e9bb9f0d5ccfb4cb66cd4fde061f49, type: 3}
      propertyPath: m_LocalScale.z
      value: 0.17061014
      objectReference: {fileID: 0}
    - target: {fileID: -8679921383154817045, guid: d2e9bb9f0d5ccfb4cb66cd4fde061f49, type: 3}
      propertyPath: m_LocalPosition.x
      value: 0.322
      objectReference: {fileID: 0}
    - target: {fileID: -8679921383154817045, guid: d2e9bb9f0d5ccfb4cb66cd4fde061f49, type: 3}
      propertyPath: m_LocalPosition.y
      value: 0.01
      objectReference: {fileID: 0}
    - target: {fileID: -8679921383154817045, guid: d2e9bb9f0d5ccfb4cb66cd4fde061f49, type: 3}
      propertyPath: m_LocalPosition.z
      value: 0.505
      objectReference: {fileID: 0}
    - target: {fileID: -8679921383154817045, guid: d2e9bb9f0d5ccfb4cb66cd4fde061f49, type: 3}
      propertyPath: m_LocalRotation.w
      value: 0.9852018
      objectReference: {fileID: 0}
    - target: {fileID: -8679921383154817045, guid: d2e9bb9f0d5ccfb4cb66cd4fde061f49, type: 3}
      propertyPath: m_LocalRotation.x
      value: -0.17139861
      objectReference: {fileID: 0}
    - target: {fileID: -8679921383154817045, guid: d2e9bb9f0d5ccfb4cb66cd4fde061f49, type: 3}
      propertyPath: m_LocalRotation.y
      value: -0
      objectReference: {fileID: 0}
    - target: {fileID: -8679921383154817045, guid: d2e9bb9f0d5ccfb4cb66cd4fde061f49, type: 3}
      propertyPath: m_LocalRotation.z
      value: -0
      objectReference: {fileID: 0}
    - target: {fileID: -8679921383154817045, guid: d2e9bb9f0d5ccfb4cb66cd4fde061f49, type: 3}
      propertyPath: m_LocalEulerAnglesHint.x
      value: -19.738
      objectReference: {fileID: 0}
    - target: {fileID: -8679921383154817045, guid: d2e9bb9f0d5ccfb4cb66cd4fde061f49, type: 3}
      propertyPath: m_LocalEulerAnglesHint.y
      value: 0
      objectReference: {fileID: 0}
    - target: {fileID: -8679921383154817045, guid: d2e9bb9f0d5ccfb4cb66cd4fde061f49, type: 3}
      propertyPath: m_LocalEulerAnglesHint.z
      value: 0
      objectReference: {fileID: 0}
    - target: {fileID: 919132149155446097, guid: d2e9bb9f0d5ccfb4cb66cd4fde061f49, type: 3}
      propertyPath: m_Name
      value: Diamond
      objectReference: {fileID: 0}
    - target: {fileID: 919132149155446097, guid: d2e9bb9f0d5ccfb4cb66cd4fde061f49, type: 3}
      propertyPath: m_IsActive
      value: 0
      objectReference: {fileID: 0}
    m_RemovedComponents: []
  m_SourcePrefab: {fileID: 100100000, guid: d2e9bb9f0d5ccfb4cb66cd4fde061f49, type: 3}
--- !u!1001 &6933514707744096263
PrefabInstance:
  m_ObjectHideFlags: 0
  serializedVersion: 2
  m_Modification:
    m_TransformParent: {fileID: 4804667405843768504}
    m_Modifications:
    - target: {fileID: -8679921383154817045, guid: b25d7cdac9fbb494c9e27b226d68a920, type: 3}
      propertyPath: m_RootOrder
      value: 0
      objectReference: {fileID: 0}
    - target: {fileID: -8679921383154817045, guid: b25d7cdac9fbb494c9e27b226d68a920, type: 3}
      propertyPath: m_LocalScale.x
      value: 1
      objectReference: {fileID: 0}
    - target: {fileID: -8679921383154817045, guid: b25d7cdac9fbb494c9e27b226d68a920, type: 3}
      propertyPath: m_LocalScale.y
      value: 1
      objectReference: {fileID: 0}
    - target: {fileID: -8679921383154817045, guid: b25d7cdac9fbb494c9e27b226d68a920, type: 3}
      propertyPath: m_LocalScale.z
      value: 1
      objectReference: {fileID: 0}
    - target: {fileID: -8679921383154817045, guid: b25d7cdac9fbb494c9e27b226d68a920, type: 3}
      propertyPath: m_LocalPosition.x
      value: 0
      objectReference: {fileID: 0}
    - target: {fileID: -8679921383154817045, guid: b25d7cdac9fbb494c9e27b226d68a920, type: 3}
      propertyPath: m_LocalPosition.y
      value: 0
      objectReference: {fileID: 0}
    - target: {fileID: -8679921383154817045, guid: b25d7cdac9fbb494c9e27b226d68a920, type: 3}
      propertyPath: m_LocalPosition.z
      value: 0
      objectReference: {fileID: 0}
    - target: {fileID: -8679921383154817045, guid: b25d7cdac9fbb494c9e27b226d68a920, type: 3}
      propertyPath: m_LocalRotation.w
      value: 1
      objectReference: {fileID: 0}
    - target: {fileID: -8679921383154817045, guid: b25d7cdac9fbb494c9e27b226d68a920, type: 3}
      propertyPath: m_LocalRotation.x
      value: 0
      objectReference: {fileID: 0}
    - target: {fileID: -8679921383154817045, guid: b25d7cdac9fbb494c9e27b226d68a920, type: 3}
      propertyPath: m_LocalRotation.y
      value: 0
      objectReference: {fileID: 0}
    - target: {fileID: -8679921383154817045, guid: b25d7cdac9fbb494c9e27b226d68a920, type: 3}
      propertyPath: m_LocalRotation.z
      value: 0
      objectReference: {fileID: 0}
    - target: {fileID: -8679921383154817045, guid: b25d7cdac9fbb494c9e27b226d68a920, type: 3}
      propertyPath: m_LocalEulerAnglesHint.x
      value: 0
      objectReference: {fileID: 0}
    - target: {fileID: -8679921383154817045, guid: b25d7cdac9fbb494c9e27b226d68a920, type: 3}
      propertyPath: m_LocalEulerAnglesHint.y
      value: 0
      objectReference: {fileID: 0}
    - target: {fileID: -8679921383154817045, guid: b25d7cdac9fbb494c9e27b226d68a920, type: 3}
      propertyPath: m_LocalEulerAnglesHint.z
      value: 0
      objectReference: {fileID: 0}
    - target: {fileID: 919132149155446097, guid: b25d7cdac9fbb494c9e27b226d68a920, type: 3}
      propertyPath: m_Name
      value: Level03Sword
      objectReference: {fileID: 0}
    m_RemovedComponents: []
  m_SourcePrefab: {fileID: 100100000, guid: b25d7cdac9fbb494c9e27b226d68a920, type: 3}
