%YAML 1.1
%TAG !u! tag:unity3d.com,2011:
--- !u!1001 &1642972370418893280
PrefabInstance:
  m_ObjectHideFlags: 0
  serializedVersion: 2
  m_Modification:
    m_TransformParent: {fileID: 7601531063505677472}
    m_Modifications:
    - target: {fileID: -8679921383154817045, guid: d2e9bb9f0d5ccfb4cb66cd4fde061f49, type: 3}
      propertyPath: m_RootOrder
      value: 1
      objectReference: {fileID: 0}
    - target: {fileID: -8679921383154817045, guid: d2e9bb9f0d5ccfb4cb66cd4fde061f49, type: 3}
      propertyPath: m_LocalScale.x
      value: 0.22539118
      objectReference: {fileID: 0}
    - target: {fileID: -8679921383154817045, guid: d2e9bb9f0d5ccfb4cb66cd4fde061f49, type: 3}
      propertyPath: m_LocalScale.y
      value: 0.22539118
      objectReference: {fileID: 0}
    - target: {fileID: -8679921383154817045, guid: d2e9bb9f0d5ccfb4cb66cd4fde061f49, type: 3}
      propertyPath: m_LocalScale.z
      value: 0.22539118
      objectReference: {fileID: 0}
    - target: {fileID: -8679921383154817045, guid: d2e9bb9f0d5ccfb4cb66cd4fde061f49, type: 3}
      propertyPath: m_LocalPosition.x
      value: 0.3143
      objectReference: {fileID: 0}
    - target: {fileID: -8679921383154817045, guid: d2e9bb9f0d5ccfb4cb66cd4fde061f49, type: 3}
      propertyPath: m_LocalPosition.y
      value: 0.0281
      objectReference: {fileID: 0}
    - target: {fileID: -8679921383154817045, guid: d2e9bb9f0d5ccfb4cb66cd4fde061f49, type: 3}
      propertyPath: m_LocalPosition.z
      value: 0.4897
      objectReference: {fileID: 0}
    - target: {fileID: -8679921383154817045, guid: d2e9bb9f0d5ccfb4cb66cd4fde061f49, type: 3}
      propertyPath: m_LocalRotation.w
      value: 0.9852018
      objectReference: {fileID: 0}
    - target: {fileID: -8679921383154817045, guid: d2e9bb9f0d5ccfb4cb66cd4fde061f49, type: 3}
      propertyPath: m_LocalRotation.x
      value: -0.17139861
      objectReference: {fileID: 0}
    - target: {fileID: -8679921383154817045, guid: d2e9bb9f0d5ccfb4cb66cd4fde061f49, type: 3}
      propertyPath: m_LocalRotation.y
      value: -0
      objectReference: {fileID: 0}
    - target: {fileID: -8679921383154817045, guid: d2e9bb9f0d5ccfb4cb66cd4fde061f49, type: 3}
      propertyPath: m_LocalRotation.z
      value: -0
      objectReference: {fileID: 0}
    - target: {fileID: -8679921383154817045, guid: d2e9bb9f0d5ccfb4cb66cd4fde061f49, type: 3}
      propertyPath: m_LocalEulerAnglesHint.x
      value: -19.738
      objectReference: {fileID: 0}
    - target: {fileID: -8679921383154817045, guid: d2e9bb9f0d5ccfb4cb66cd4fde061f49, type: 3}
      propertyPath: m_LocalEulerAnglesHint.y
      value: 0
      objectReference: {fileID: 0}
    - target: {fileID: -8679921383154817045, guid: d2e9bb9f0d5ccfb4cb66cd4fde061f49, type: 3}
      propertyPath: m_LocalEulerAnglesHint.z
      value: 0
      objectReference: {fileID: 0}
    - target: {fileID: 919132149155446097, guid: d2e9bb9f0d5ccfb4cb66cd4fde061f49, type: 3}
      propertyPath: m_Name
      value: Diamond
      objectReference: {fileID: 0}
    - target: {fileID: 919132149155446097, guid: d2e9bb9f0d5ccfb4cb66cd4fde061f49, type: 3}
      propertyPath: m_IsActive
      value: 0
      objectReference: {fileID: 0}
    m_RemovedComponents: []
  m_SourcePrefab: {fileID: 100100000, guid: d2e9bb9f0d5ccfb4cb66cd4fde061f49, type: 3}
--- !u!1001 &1972556969757559625
PrefabInstance:
  m_ObjectHideFlags: 0
  serializedVersion: 2
  m_Modification:
    m_TransformParent: {fileID: 0}
    m_Modifications:
    - target: {fileID: 774378753643758348, guid: 96fa39241ff3b4ac6b939a3a95b66b59, type: 3}
      propertyPath: m_IsActive
      value: 0
      objectReference: {fileID: 0}
    - target: {fileID: 1188134522947265224, guid: 96fa39241ff3b4ac6b939a3a95b66b59, type: 3}
      propertyPath: ReplacableObject
      value: 
      objectReference: {fileID: 11400000, guid: dd9891a6760674b4fa52baa585dcb8f4, type: 2}
    - target: {fileID: 4930062642420361351, guid: 96fa39241ff3b4ac6b939a3a95b66b59, type: 3}
      propertyPath: m_RootOrder
      value: 0
      objectReference: {fileID: 0}
    - target: {fileID: 4930062642420361351, guid: 96fa39241ff3b4ac6b939a3a95b66b59, type: 3}
      propertyPath: m_LocalScale.x
      value: 3
      objectReference: {fileID: 0}
    - target: {fileID: 4930062642420361351, guid: 96fa39241ff3b4ac6b939a3a95b66b59, type: 3}
      propertyPath: m_LocalScale.y
      value: 3
      objectReference: {fileID: 0}
    - target: {fileID: 4930062642420361351, guid: 96fa39241ff3b4ac6b939a3a95b66b59, type: 3}
      propertyPath: m_LocalScale.z
      value: 3
      objectReference: {fileID: 0}
    - target: {fileID: 4930062642420361351, guid: 96fa39241ff3b4ac6b939a3a95b66b59, type: 3}
      propertyPath: m_LocalPosition.x
      value: 0
      objectReference: {fileID: 0}
    - target: {fileID: 4930062642420361351, guid: 96fa39241ff3b4ac6b939a3a95b66b59, type: 3}
      propertyPath: m_LocalPosition.y
      value: 0
      objectReference: {fileID: 0}
    - target: {fileID: 4930062642420361351, guid: 96fa39241ff3b4ac6b939a3a95b66b59, type: 3}
      propertyPath: m_LocalPosition.z
      value: 0
      objectReference: {fileID: 0}
    - target: {fileID: 4930062642420361351, guid: 96fa39241ff3b4ac6b939a3a95b66b59, type: 3}
      propertyPath: m_LocalRotation.w
      value: 1
      objectReference: {fileID: 0}
    - target: {fileID: 4930062642420361351, guid: 96fa39241ff3b4ac6b939a3a95b66b59, type: 3}
      propertyPath: m_LocalRotation.x
      value: 0
      objectReference: {fileID: 0}
    - target: {fileID: 4930062642420361351, guid: 96fa39241ff3b4ac6b939a3a95b66b59, type: 3}
      propertyPath: m_LocalRotation.y
      value: 0
      objectReference: {fileID: 0}
    - target: {fileID: 4930062642420361351, guid: 96fa39241ff3b4ac6b939a3a95b66b59, type: 3}
      propertyPath: m_LocalRotation.z
      value: 0
      objectReference: {fileID: 0}
    - target: {fileID: 4930062642420361351, guid: 96fa39241ff3b4ac6b939a3a95b66b59, type: 3}
      propertyPath: m_LocalEulerAnglesHint.x
      value: 0
      objectReference: {fileID: 0}
    - target: {fileID: 4930062642420361351, guid: 96fa39241ff3b4ac6b939a3a95b66b59, type: 3}
      propertyPath: m_LocalEulerAnglesHint.y
      value: 0
      objectReference: {fileID: 0}
    - target: {fileID: 4930062642420361351, guid: 96fa39241ff3b4ac6b939a3a95b66b59, type: 3}
      propertyPath: m_LocalEulerAnglesHint.z
      value: 0
      objectReference: {fileID: 0}
    - target: {fileID: 5030546212714977446, guid: 96fa39241ff3b4ac6b939a3a95b66b59, type: 3}
      propertyPath: basePrice
      value: 20
      objectReference: {fileID: 0}
    - target: {fileID: 5030546212714977446, guid: 96fa39241ff3b4ac6b939a3a95b66b59, type: 3}
      propertyPath: addonPrices
      value: 
      objectReference: {fileID: 11400000, guid: d2d886fba036c954fa90d29e6939901f, type: 2}
    - target: {fileID: 6481372076361510897, guid: 96fa39241ff3b4ac6b939a3a95b66b59, type: 3}
      propertyPath: m_LocalRotation.w
      value: 0.59636784
      objectReference: {fileID: 0}
    - target: {fileID: 6481372076361510897, guid: 96fa39241ff3b4ac6b939a3a95b66b59, type: 3}
      propertyPath: m_LocalRotation.x
      value: 0.37992823
      objectReference: {fileID: 0}
    - target: {fileID: 6481372076361510897, guid: 96fa39241ff3b4ac6b939a3a95b66b59, type: 3}
      propertyPath: m_LocalRotation.y
      value: -0.59636784
      objectReference: {fileID: 0}
    - target: {fileID: 6481372076361510897, guid: 96fa39241ff3b4ac6b939a3a95b66b59, type: 3}
      propertyPath: m_LocalRotation.z
      value: -0.37992823
      objectReference: {fileID: 0}
    - target: {fileID: 7326879605730770368, guid: 96fa39241ff3b4ac6b939a3a95b66b59, type: 3}
      propertyPath: m_LocalPosition.y
      value: 0.022
      objectReference: {fileID: 0}
    - target: {fileID: 7326879605730770368, guid: 96fa39241ff3b4ac6b939a3a95b66b59, type: 3}
      propertyPath: m_LocalPosition.z
      value: 0.512
      objectReference: {fileID: 0}
    - target: {fileID: 8767470730842991135, guid: 96fa39241ff3b4ac6b939a3a95b66b59, type: 3}
      propertyPath: m_Name
      value: SwordTier4
      objectReference: {fileID: 0}
    - target: {fileID: 8876749143482074530, guid: 96fa39241ff3b4ac6b939a3a95b66b59, type: 3}
      propertyPath: m_IsActive
      value: 0
      objectReference: {fileID: 0}
    m_RemovedComponents:
    - {fileID: 5446590087301624843, guid: 96fa39241ff3b4ac6b939a3a95b66b59, type: 3}
  m_SourcePrefab: {fileID: 100100000, guid: 96fa39241ff3b4ac6b939a3a95b66b59, type: 3}
--- !u!4 &4804667405843768504 stripped
Transform:
  m_CorrespondingSourceObject: {fileID: 6481372076361510897, guid: 96fa39241ff3b4ac6b939a3a95b66b59, type: 3}
  m_PrefabInstance: {fileID: 1972556969757559625}
  m_PrefabAsset: {fileID: 0}
--- !u!4 &7601531063505677472 stripped
Transform:
  m_CorrespondingSourceObject: {fileID: 8224133836616017897, guid: 96fa39241ff3b4ac6b939a3a95b66b59, type: 3}
  m_PrefabInstance: {fileID: 1972556969757559625}
  m_PrefabAsset: {fileID: 0}
--- !u!1001 &3730764038234197543
PrefabInstance:
  m_ObjectHideFlags: 0
  serializedVersion: 2
  m_Modification:
    m_TransformParent: {fileID: 2163821478511513573}
    m_Modifications:
    - target: {fileID: 126754, guid: db1ef0db102f5864986443fb43fd0f64, type: 3}
      propertyPath: m_Name
      value: SparkleAreaBlue
      objectReference: {fileID: 0}
    - target: {fileID: 462634, guid: db1ef0db102f5864986443fb43fd0f64, type: 3}
      propertyPath: m_RootOrder
      value: 0
      objectReference: {fileID: 0}
    - target: {fileID: 462634, guid: db1ef0db102f5864986443fb43fd0f64, type: 3}
      propertyPath: m_LocalScale.x
      value: 0.33333325
      objectReference: {fileID: 0}
    - target: {fileID: 462634, guid: db1ef0db102f5864986443fb43fd0f64, type: 3}
      propertyPath: m_LocalScale.y
      value: 0.33333322
      objectReference: {fileID: 0}
    - target: {fileID: 462634, guid: db1ef0db102f5864986443fb43fd0f64, type: 3}
      propertyPath: m_LocalScale.z
      value: 0.33333334
      objectReference: {fileID: 0}
    - target: {fileID: 462634, guid: db1ef0db102f5864986443fb43fd0f64, type: 3}
      propertyPath: m_LocalPosition.x
      value: 3.2755866
      objectReference: {fileID: 0}
    - target: {fileID: 462634, guid: db1ef0db102f5864986443fb43fd0f64, type: 3}
      propertyPath: m_LocalPosition.y
      value: 2.5621877
      objectReference: {fileID: 0}
    - target: {fileID: 462634, guid: db1ef0db102f5864986443fb43fd0f64, type: 3}
      propertyPath: m_LocalPosition.z
      value: 0.36422345
      objectReference: {fileID: 0}
    - target: {fileID: 462634, guid: db1ef0db102f5864986443fb43fd0f64, type: 3}
      propertyPath: m_LocalRotation.w
      value: 0.15304591
      objectReference: {fileID: 0}
    - target: {fileID: 462634, guid: db1ef0db102f5864986443fb43fd0f64, type: 3}
      propertyPath: m_LocalRotation.x
      value: -0.6903456
      objectReference: {fileID: 0}
    - target: {fileID: 462634, guid: db1ef0db102f5864986443fb43fd0f64, type: 3}
      propertyPath: m_LocalRotation.y
      value: 0.15304591
      objectReference: {fileID: 0}
    - target: {fileID: 462634, guid: db1ef0db102f5864986443fb43fd0f64, type: 3}
      propertyPath: m_LocalRotation.z
      value: 0.6903456
      objectReference: {fileID: 0}
    - target: {fileID: 462634, guid: db1ef0db102f5864986443fb43fd0f64, type: 3}
      propertyPath: m_LocalEulerAnglesHint.x
      value: -90
      objectReference: {fileID: 0}
    - target: {fileID: 462634, guid: db1ef0db102f5864986443fb43fd0f64, type: 3}
      propertyPath: m_LocalEulerAnglesHint.y
      value: 0
      objectReference: {fileID: 0}
    - target: {fileID: 462634, guid: db1ef0db102f5864986443fb43fd0f64, type: 3}
      propertyPath: m_LocalEulerAnglesHint.z
      value: 0
      objectReference: {fileID: 0}
    - target: {fileID: 19898864, guid: db1ef0db102f5864986443fb43fd0f64, type: 3}
      propertyPath: ShapeModule.type
      value: 13
      objectReference: {fileID: 0}
    - target: {fileID: 19898864, guid: db1ef0db102f5864986443fb43fd0f64, type: 3}
      propertyPath: ShapeModule.m_MeshRenderer
      value: 
      objectReference: {fileID: 779579186626567919}
    - target: {fileID: 19898864, guid: db1ef0db102f5864986443fb43fd0f64, type: 3}
      propertyPath: ShapeModule.m_UseMeshColors
      value: 0
      objectReference: {fileID: 0}
    - target: {fileID: 19898864, guid: db1ef0db102f5864986443fb43fd0f64, type: 3}
      propertyPath: ShapeModule.radiusThickness
      value: 1
      objectReference: {fileID: 0}
    - target: {fileID: 19898864, guid: db1ef0db102f5864986443fb43fd0f64, type: 3}
      propertyPath: InitialModule.startSize.scalar
      value: 0.1
      objectReference: {fileID: 0}
    - target: {fileID: 19898864, guid: db1ef0db102f5864986443fb43fd0f64, type: 3}
      propertyPath: InitialModule.startSize.minScalar
      value: 0.03
      objectReference: {fileID: 0}
    - target: {fileID: 19898864, guid: db1ef0db102f5864986443fb43fd0f64, type: 3}
      propertyPath: EmissionModule.rateOverTime.scalar
      value: 5
      objectReference: {fileID: 0}
    - target: {fileID: 19898864, guid: db1ef0db102f5864986443fb43fd0f64, type: 3}
      propertyPath: InitialModule.startLifetime.scalar
      value: 0.7
      objectReference: {fileID: 0}
    - target: {fileID: 19898864, guid: db1ef0db102f5864986443fb43fd0f64, type: 3}
      propertyPath: InitialModule.startLifetime.minScalar
      value: 0.5
      objectReference: {fileID: 0}
    - target: {fileID: 19915092, guid: db1ef0db102f5864986443fb43fd0f64, type: 3}
      propertyPath: m_Materials.Array.size
      value: 1
      objectReference: {fileID: 0}
    - target: {fileID: 19978564, guid: db1ef0db102f5864986443fb43fd0f64, type: 3}
      propertyPath: m_Materials.Array.size
      value: 1
      objectReference: {fileID: 0}
    m_RemovedComponents: []
  m_SourcePrefab: {fileID: 100100000, guid: db1ef0db102f5864986443fb43fd0f64, type: 3}
--- !u!1001 &4889938216208169286
PrefabInstance:
  m_ObjectHideFlags: 0
  serializedVersion: 2
  m_Modification:
    m_TransformParent: {fileID: 4804667405843768504}
    m_Modifications:
    - target: {fileID: 1976914208881781569, guid: 7b6593246e49a4f4d87e59b07b3032fb, type: 3}
      propertyPath: m_IsActive
      value: 0
      objectReference: {fileID: 0}
    - target: {fileID: 5263885278503495593, guid: 7b6593246e49a4f4d87e59b07b3032fb, type: 3}
      propertyPath: m_Materials.Array.data[0]
      value: 
      objectReference: {fileID: 2100000, guid: 14f59f56c8d6cb64bb9c36f00370623c, type: 2}
    - target: {fileID: 8221605998239740009, guid: 7b6593246e49a4f4d87e59b07b3032fb, type: 3}
      propertyPath: m_IsActive
      value: 0
      objectReference: {fileID: 0}
    - target: {fileID: 8221840083943776619, guid: 7b6593246e49a4f4d87e59b07b3032fb, type: 3}
      propertyPath: m_IsActive
      value: 1
      objectReference: {fileID: 0}
    - target: {fileID: 8221878763129090809, guid: 7b6593246e49a4f4d87e59b07b3032fb, type: 3}
      propertyPath: m_IsActive
      value: 1
      objectReference: {fileID: 0}
    - target: {fileID: 8272553192761007071, guid: 7b6593246e49a4f4d87e59b07b3032fb, type: 3}
      propertyPath: m_Name
      value: Level04Sword
      objectReference: {fileID: 0}
    - target: {fileID: 8756638009832194405, guid: 7b6593246e49a4f4d87e59b07b3032fb, type: 3}
      propertyPath: m_RootOrder
      value: 0
      objectReference: {fileID: 0}
    - target: {fileID: 8756638009832194405, guid: 7b6593246e49a4f4d87e59b07b3032fb, type: 3}
      propertyPath: m_LocalPosition.x
      value: -0
      objectReference: {fileID: 0}
    - target: {fileID: 8756638009832194405, guid: 7b6593246e49a4f4d87e59b07b3032fb, type: 3}
      propertyPath: m_LocalPosition.y
      value: 0
      objectReference: {fileID: 0}
    - target: {fileID: 8756638009832194405, guid: 7b6593246e49a4f4d87e59b07b3032fb, type: 3}
      propertyPath: m_LocalPosition.z
      value: 0
      objectReference: {fileID: 0}
    - target: {fileID: 8756638009832194405, guid: 7b6593246e49a4f4d87e59b07b3032fb, type: 3}
      propertyPath: m_LocalRotation.w
      value: 1
      objectReference: {fileID: 0}
    - target: {fileID: 8756638009832194405, guid: 7b6593246e49a4f4d87e59b07b3032fb, type: 3}
      propertyPath: m_LocalRotation.x
      value: 0
      objectReference: {fileID: 0}
    - target: {fileID: 8756638009832194405, guid: 7b6593246e49a4f4d87e59b07b3032fb, type: 3}
      propertyPath: m_LocalRotation.y
      value: -0
      objectReference: {fileID: 0}
    - target: {fileID: 8756638009832194405, guid: 7b6593246e49a4f4d87e59b07b3032fb, type: 3}
      propertyPath: m_LocalRotation.z
      value: -0
      objectReference: {fileID: 0}
    - target: {fileID: 8756638009832194405, guid: 7b6593246e49a4f4d87e59b07b3032fb, type: 3}
      propertyPath: m_LocalEulerAnglesHint.x
      value: 0
      objectReference: {fileID: 0}
    - target: {fileID: 8756638009832194405, guid: 7b6593246e49a4f4d87e59b07b3032fb, type: 3}
      propertyPath: m_LocalEulerAnglesHint.y
      value: 0
      objectReference: {fileID: 0}
    - target: {fileID: 8756638009832194405, guid: 7b6593246e49a4f4d87e59b07b3032fb, type: 3}
      propertyPath: m_LocalEulerAnglesHint.z
      value: 0
      objectReference: {fileID: 0}
    m_RemovedComponents: []
  m_SourcePrefab: {fileID: 100100000, guid: 7b6593246e49a4f4d87e59b07b3032fb, type: 3}
--- !u!4 &2163821478511513573 stripped
Transform:
  m_CorrespondingSourceObject: {fileID: 6763277226428069539, guid: 7b6593246e49a4f4d87e59b07b3032fb, type: 3}
  m_PrefabInstance: {fileID: 4889938216208169286}
  m_PrefabAsset: {fileID: 0}
--- !u!23 &779579186626567919 stripped
MeshRenderer:
  m_CorrespondingSourceObject: {fileID: 5263885278503495593, guid: 7b6593246e49a4f4d87e59b07b3032fb, type: 3}
  m_PrefabInstance: {fileID: 4889938216208169286}
  m_PrefabAsset: {fileID: 0}
--- !u!1001 &8706783050869266944
PrefabInstance:
  m_ObjectHideFlags: 0
  serializedVersion: 2
  m_Modification:
    m_TransformParent: {fileID: 7601531063505677472}
    m_Modifications:
    - target: {fileID: -8679921383154817045, guid: 5e6918b45b4ea444999fa702d365dfc4, type: 3}
      propertyPath: m_RootOrder
      value: 2
      objectReference: {fileID: 0}
    - target: {fileID: -8679921383154817045, guid: 5e6918b45b4ea444999fa702d365dfc4, type: 3}
      propertyPath: m_LocalScale.x
      value: 0.050057285
      objectReference: {fileID: 0}
    - target: {fileID: -8679921383154817045, guid: 5e6918b45b4ea444999fa702d365dfc4, type: 3}
      propertyPath: m_LocalScale.y
      value: 0.050057285
      objectReference: {fileID: 0}
    - target: {fileID: -8679921383154817045, guid: 5e6918b45b4ea444999fa702d365dfc4, type: 3}
      propertyPath: m_LocalScale.z
      value: 0.050057285
      objectReference: {fileID: 0}
    - target: {fileID: -8679921383154817045, guid: 5e6918b45b4ea444999fa702d365dfc4, type: 3}
      propertyPath: m_LocalPosition.x
      value: 0.3313
      objectReference: {fileID: 0}
    - target: {fileID: -8679921383154817045, guid: 5e6918b45b4ea444999fa702d365dfc4, type: 3}
      propertyPath: m_LocalPosition.y
      value: 0.033774883
      objectReference: {fileID: 0}
    - target: {fileID: -8679921383154817045, guid: 5e6918b45b4ea444999fa702d365dfc4, type: 3}
      propertyPath: m_LocalPosition.z
      value: 0.49425438
      objectReference: {fileID: 0}
    - target: {fileID: -8679921383154817045, guid: 5e6918b45b4ea444999fa702d365dfc4, type: 3}
      propertyPath: m_LocalRotation.w
      value: 0.9738046
      objectReference: {fileID: 0}
    - target: {fileID: -8679921383154817045, guid: 5e6918b45b4ea444999fa702d365dfc4, type: 3}
      propertyPath: m_LocalRotation.x
      value: -0.22738649
      objectReference: {fileID: 0}
    - target: {fileID: -8679921383154817045, guid: 5e6918b45b4ea444999fa702d365dfc4, type: 3}
      propertyPath: m_LocalRotation.y
      value: -0
      objectReference: {fileID: 0}
    - target: {fileID: -8679921383154817045, guid: 5e6918b45b4ea444999fa702d365dfc4, type: 3}
      propertyPath: m_LocalRotation.z
      value: -0
      objectReference: {fileID: 0}
    - target: {fileID: -8679921383154817045, guid: 5e6918b45b4ea444999fa702d365dfc4, type: 3}
      propertyPath: m_LocalEulerAnglesHint.x
      value: -26.287
      objectReference: {fileID: 0}
    - target: {fileID: -8679921383154817045, guid: 5e6918b45b4ea444999fa702d365dfc4, type: 3}
      propertyPath: m_LocalEulerAnglesHint.y
      value: 0
      objectReference: {fileID: 0}
    - target: {fileID: -8679921383154817045, guid: 5e6918b45b4ea444999fa702d365dfc4, type: 3}
      propertyPath: m_LocalEulerAnglesHint.z
      value: 0
      objectReference: {fileID: 0}
    - target: {fileID: 919132149155446097, guid: 5e6918b45b4ea444999fa702d365dfc4, type: 3}
      propertyPath: m_Name
      value: NewDiamond
      objectReference: {fileID: 0}
    m_RemovedComponents: []
  m_SourcePrefab: {fileID: 100100000, guid: 5e6918b45b4ea444999fa702d365dfc4, type: 3}
