%YAML 1.1
%TAG !u! tag:unity3d.com,2011:
--- !u!114 &11400000
MonoBehaviour:
  m_ObjectHideFlags: 0
  m_CorrespondingSourceObject: {fileID: 0}
  m_PrefabInstance: {fileID: 0}
  m_PrefabAsset: {fileID: 0}
  m_GameObject: {fileID: 0}
  m_Enabled: 1
  m_EditorHideFlags: 0
  m_Script: {fileID: 11500000, guid: 73df96eafcff54bfeb8a8013c92511dd, type: 3}
  m_Name: OnLevelFailed
  m_EditorClassIdentifier: 
  Action:
    m_PersistentCalls:
      m_Calls: []
  cooldownTime: 0
  cooldown:
    LastCalledTime: 97.76993
    CooldownTime: 0
