%YAML 1.1
%TAG !u! tag:unity3d.com,2011:
--- !u!114 &11400000
MonoBehaviour:
  m_ObjectHideFlags: 0
  m_CorrespondingSourceObject: {fileID: 0}
  m_PrefabInstance: {fileID: 0}
  m_PrefabAsset: {fileID: 0}
  m_GameObject: {fileID: 0}
  m_Enabled: 1
  m_EditorHideFlags: 0
  m_Script: {fileID: 11500000, guid: a7360cfe4065548e8a1c1edc4e31dd9a, type: 3}
  m_Name: EnemyHealth2
  m_EditorClassIdentifier: 
  startExp: 0
  CurrentExp: 0
  startLevel: 5
  CurrentLevel: 0
  MaxExps: 320000006400000096000000c8000000fa000000
  OnLevelUpdated:
    m_PersistentCalls:
      m_Calls: []
  OnLevelUp:
    m_PersistentCalls:
      m_Calls: []
  OnLevelDown:
    m_PersistentCalls:
      m_Calls: []
  OnProgressBelowZero:
    m_PersistentCalls:
      m_Calls: []
  OnProgressReachedMax:
    m_PersistentCalls:
      m_Calls: []
  OnXpIncreased:
    m_PersistentCalls:
      m_Calls: []
  OnXpDecreased:
    m_PersistentCalls:
      m_Calls: []
  OnCurrentXpSet:
    m_PersistentCalls:
      m_Calls: []
  OnProgressRatioChanged:
    m_PersistentCalls:
      m_Calls: []
  OnTotalProgressRatioChanged:
    m_PersistentCalls:
      m_Calls: []
