%YAML 1.1
%TAG !u! tag:unity3d.com,2011:
--- !u!114 &11400000
MonoBehaviour:
  m_ObjectHideFlags: 0
  m_CorrespondingSourceObject: {fileID: 0}
  m_PrefabInstance: {fileID: 0}
  m_PrefabAsset: {fileID: 0}
  m_GameObject: {fileID: 0}
  m_Enabled: 1
  m_EditorHideFlags: 0
  m_Script: {fileID: 11500000, guid: 57f84e988ffa0ec46b304ff978b16a4c, type: 3}
  m_Name: InitialSpeed
  m_EditorClassIdentifier: 
  saveData:
    Enabled: 0
    SaveKey:
      useValue: 0
      variable: {fileID: 0}
      constantValue: 
  minValue:
    Enabled: 0
    floatValue:
      useValue: 0
      variable: {fileID: 0}
      constantValue: 0
  maxValue:
    Enabled: 0
    floatValue:
      useValue: 0
      variable: {fileID: 0}
      constantValue: 0
  value: 10
