%YAML 1.1
%TAG !u! tag:unity3d.com,2011:
--- !u!114 &11400000
MonoBehaviour:
  m_ObjectHideFlags: 0
  m_CorrespondingSourceObject: {fileID: 0}
  m_PrefabInstance: {fileID: 0}
  m_PrefabAsset: {fileID: 0}
  m_GameObject: {fileID: 0}
  m_Enabled: 1
  m_EditorHideFlags: 0
  m_Script: {fileID: 11500000, guid: 7a0c86b5337061b43949fe5ba27a9609, type: 3}
  m_Name: PlayerTag
  m_EditorClassIdentifier: 
  saveData:
    Enabled: 0
    SaveKey:
      useValue: 0
      variable: {fileID: 0}
      constantValue: 
  value: Player
