%YAML 1.1
%TAG !u! tag:unity3d.com,2011:
--- !u!21 &2100000
Material:
  serializedVersion: 6
  m_ObjectHideFlags: 0
  m_CorrespondingSourceObject: {fileID: 0}
  m_PrefabInstance: {fileID: 0}
  m_PrefabAsset: {fileID: 0}
  m_Name: Windwaker 13
  m_Shader: {fileID: -6465566751694194690, guid: a9aea49e19495174f80f910ddb189a37, type: 3}
  m_ShaderKeywords: FOAM_SHADOWS_ON INTERSECTION_EFFECTS_ON SURFACE_FOAM_ON WATER_LIGHTING_ON
    WORLD_SPACE_UV_ON
  m_LightmapFlags: 4
  m_EnableInstancingVariants: 0
  m_DoubleSidedGI: 0
  m_CustomRenderQueue: -1
  stringTagMap: {}
  disabledShaderPasses: []
  m_SavedProperties:
    serializedVersion: 3
    m_TexEnvs:
    - _IntersectionFoamTexture:
        m_Texture: {fileID: 2800000, guid: 772031b03d9d46e4ab03e15c8e17718c, type: 3}
        m_Scale: {x: 1, y: 1}
        m_Offset: {x: 0, y: 0}
    - _SurfaceFoamTexture:
        m_Texture: {fileID: 2800000, guid: 5293ac8cd3dd6f6478585f4f30abddf7, type: 3}
        m_Scale: {x: 1, y: 1}
        m_Offset: {x: 0, y: 0}
    - unity_Lightmaps:
        m_Texture: {fileID: 0}
        m_Scale: {x: 1, y: 1}
        m_Offset: {x: 0, y: 0}
    - unity_LightmapsInd:
        m_Texture: {fileID: 0}
        m_Scale: {x: 1, y: 1}
        m_Offset: {x: 0, y: 0}
    - unity_ShadowMasks:
        m_Texture: {fileID: 0}
        m_Scale: {x: 1, y: 1}
        m_Offset: {x: 0, y: 0}
    m_Ints: []
    m_Floats:
    - INTERSECTION_EFFECTS: 1
    - REFRACTION: 0
    - SURFACE_FOAM: 1
    - WORLD_SPACE_UV: 1
    - _IntersectionFoamBlend: 1
    - _IntersectionFoamDepth: 0.72
    - _IntersectionFoamScale: 0.19
    - _IntersectionWaterBlend: 0
    - _RefractionStrength: 0
    - _ShoreBlend: 0
    - _ShoreDepth: 0.72
    - _ShoreFade: 0.125
    - _SurfaceFoamBlend: 1
    - _WaterColorDepth: 2.43
    - _WaterColorHorizonDistance: 2.1
    m_Colors:
    - _IntersectionFoamColor: {r: 1, g: 1, b: 1, a: 1}
    - _IntersectionFoamMovement: {r: 0, g: 0, b: 0, a: 0}
    - _IntersectionFoamSampling: {r: 1, g: 0, b: 0, a: 0}
    - _NormalsMovement: {r: 0.037, g: 1.555, b: 0, a: 0}
    - _ShoreColor: {r: 0.50980073, g: 0.78828657, b: 0.8666667, a: 0}
    - _SurfaceFoamColor1: {r: 1, g: 1, b: 1, a: 0.23921569}
    - _SurfaceFoamColor2: {r: 1, g: 1, b: 1, a: 0.4627451}
    - _SurfaceFoamMovement: {r: 0.7, g: 0.049, b: 0.47, a: 0.059}
    - _SurfaceFoamSampling: {r: 0.3, g: 0.02, b: 0, a: 0}
    - _SurfaceFoamTilingAndOffset: {r: -1, g: -1, b: 1.701, a: 0}
    - _WaterColorDeep: {r: 0.45098037, g: 0.8627451, b: 0.96078426, a: 1}
    - _WaterColorHorizon: {r: 0.58272517, g: 0.7662419, b: 0.9150943, a: 1}
    - _WaterColorShallow: {r: 0.78773576, g: 0.8595546, b: 1, a: 1}
    - _WaveColor: {r: 0, g: 0, b: 0, a: 0}
    - _WaveDirections: {r: 0, g: 0.64, b: 1, a: 0.33}
    - _WaveVisuals: {r: 0.01, g: 7.6, b: 1.38, a: 0}
  m_BuildTextureStacks: []
--- !u!114 &3884871068361501984
MonoBehaviour:
  m_ObjectHideFlags: 11
  m_CorrespondingSourceObject: {fileID: 0}
  m_PrefabInstance: {fileID: 0}
  m_PrefabAsset: {fileID: 0}
  m_GameObject: {fileID: 0}
  m_Enabled: 1
  m_EditorHideFlags: 0
  m_Script: {fileID: 11500000, guid: d0353a89b1f911e48b9e16bdc9f2e058, type: 3}
  m_Name: 
  m_EditorClassIdentifier: 
  version: 2
