%YAML 1.1
%TAG !u! tag:unity3d.com,2011:
--- !u!114 &11400000
MonoBehaviour:
  m_ObjectHideFlags: 0
  m_CorrespondingSourceObject: {fileID: 0}
  m_PrefabInstance: {fileID: 0}
  m_PrefabAsset: {fileID: 0}
  m_GameObject: {fileID: 0}
  m_Enabled: 1
  m_EditorHideFlags: 0
  m_Script: {fileID: 11500000, guid: 056e995cef8a56746b15b76b850c4aa6, type: 3}
  m_Name: Tier1NodeAddonPrices
  m_EditorClassIdentifier: 
  addonPrices:
  - Addon: {fileID: 11400000, guid: 923dd71cf581459489ff49b848b6ff9c, type: 2}
    Price: 1
  - Addon: {fileID: 11400000, guid: fe657410515079447a84bdf5ddee47b3, type: 2}
    Price: 2
  - Addon: {fileID: 11400000, guid: 534e807dbd9e39a4d9dd898d73c5f6b9, type: 2}
    Price: 1
  - Addon: {fileID: 11400000, guid: a51c6251d8e6a4273910f1a0a4e34154, type: 2}
    Price: 1
