%YAML 1.1
%TAG !u! tag:unity3d.com,2011:
--- !u!114 &11400000
MonoBehaviour:
  m_ObjectHideFlags: 0
  m_CorrespondingSourceObject: {fileID: 0}
  m_PrefabInstance: {fileID: 0}
  m_PrefabAsset: {fileID: 0}
  m_GameObject: {fileID: 0}
  m_Enabled: 1
  m_EditorHideFlags: 0
  m_Script: {fileID: 11500000, guid: 0b878db1d6ae04a1597305dbdc9fad1d, type: 3}
  m_Name: Burned
  m_EditorClassIdentifier: 
  MaxAddonCount: 1
  RequiredAddons: []
  OnAddonAdded:
    m_PersistentCalls:
      m_Calls:
      - m_Target: {fileID: 11400000, guid: 63ebfd264113513419c5883900256e26, type: 2}
        m_TargetAssemblyTypeName: UnityEngine.Object, UnityEngine
        m_MethodName: set_name
        m_Mode: 5
        m_Arguments:
          m_ObjectArgument: {fileID: 0}
          m_ObjectArgumentAssemblyTypeName: UnityEngine.Object, UnityEngine
          m_IntArgument: 0
          m_FloatArgument: 0
          m_StringArgument: Burned
          m_BoolArgument: 0
        m_CallState: 2
  OnAddonRemoved:
    m_PersistentCalls:
      m_Calls: []
  ApplyDefaultAddedEffectAlways: 0
  ApplyDefaultRemovedEffectAlways: 0
