%YAML 1.1
%TAG !u! tag:unity3d.com,2011:
--- !u!114 &11400000
MonoBehaviour:
  m_ObjectHideFlags: 0
  m_CorrespondingSourceObject: {fileID: 0}
  m_PrefabInstance: {fileID: 0}
  m_PrefabAsset: {fileID: 0}
  m_GameObject: {fileID: 0}
  m_Enabled: 1
  m_EditorHideFlags: 0
  m_Script: {fileID: 11500000, guid: 0b878db1d6ae04a1597305dbdc9fad1d, type: 3}
  m_Name: Forged
  m_EditorClassIdentifier: 
  MaxAddonCount: 1
  RequiredAddons:
  - {fileID: 11400000, guid: 534e807dbd9e39a4d9dd898d73c5f6b9, type: 2}
  OnAddonAdded:
    m_PersistentCalls:
      m_Calls: []
  OnAddonRemoved:
    m_PersistentCalls:
      m_Calls: []
  ApplyDefaultAddedEffectAlways: 0
  ApplyDefaultRemovedEffectAlways: 0
